{
	"name":	"LogstreamSalesCDCTask__2021-05-21--16-47-55-037406",
	"cmd.replication_definition":	{
		"tasks":	[{
				"task":	{
					"name":	"LogstreamSalesCDCTask",
					"source_name":	"SalesSRCLogStream",
					"target_names":	["LogStreamSalesTgt"],
					"task_type":	"_LOG_STREAM"
				},
				"source":	{
					"rep_source":	{
						"source_name":	"SalesSRCLogStream",
						"database_name":	"SalesSRCLogStream"
					},
					"source_tables":	{
						"name":	"SalesSRCLogStream",
						"explicit_included_tables":	[{
								"owner":	"dbo",
								"name":	"Employees",
								"estimated_size":	31,
								"orig_db_id":	485576768,
								"validation_sampling_percentage":	0
							}]
					}
				},
				"targets":	[{
						"rep_target":	{
							"target_name":	"LogStreamSalesTgt",
							"target_state":	"DISABLED",
							"database_name":	"LogStreamSalesTgt"
						}
					}],
				"task_settings":	{
					"source_settings":	{
					},
					"target_settings":	{
						"queue_settings":	{
							"message_shape":	{
							},
							"key_shape":	{
							}
						},
						"ftm_settings":	{
						}
					},
					"sorter_settings":	{
						"local_transactions_storage":	{
						}
					},
					"common_settings":	{
						"change_table_settings":	{
							"header_columns_settings":	{
							}
						},
						"full_load_enabled":	false,
						"audit_table_settings":	{
						},
						"dr_settings":	{
						},
						"statistics_table_settings":	{
						},
						"bidi_table_settings":	{
						},
						"task_uuid":	"32613d55-1ca3-5948-bd92-45f2419c0879",
						"status_table_settings":	{
						},
						"suspended_tables_table_settings":	{
						},
						"history_table_settings":	{
						},
						"exception_table_settings":	{
						},
						"recovery_table_settings":	{
						},
						"data_batching_settings":	{
						},
						"data_batching_table_settings":	{
						},
						"log_stream_settings_depricated":	{
						},
						"ddl_history_table_settings":	{
						},
						"customized_charset_settings":	{
							"validation":	{
								"sub_char":	0
							}
						}
					}
				}
			}],
		"databases":	[{
				"name":	"SalesSRCLogStream",
				"role":	"SOURCE",
				"is_licensed":	true,
				"type_id":	"SQL_SERVER_COMPONENT_TYPE",
				"db_settings":	{
					"$type":	"SqlserverSettings",
					"username":	"sa",
					"password":	"{ZA6295CFAA0B7CD8455CB19A6F890E421D32B4E52767D9FADB}",
					"database":	"SalesDB",
					"useWindowsAuthentication":	false,
					"safeguardPolicy":	"RELY_ON_SQL_SERVER_REPLICATION_AGENT"
				},
				"override_properties":	{
				}
			}, {
				"name":	"LogStreamSalesTgt",
				"role":	"TARGET",
				"is_licensed":	true,
				"type_id":	"LOG_STREAM_COMPONENT_TYPE",
				"db_settings":	{
					"$type":	"LogstreamSettings",
					"path":	"D:\\Program Files\\Attunity\\Replicate\\Logstream"
				},
				"override_properties":	{
				}
			}]
	},
	"_version":	{
		"version":	"7.0.0.514",
		"version_major":	7,
		"version_revision":	514
	},
	"description":	"Host name: WIN-RMUVKHHTAOS, Time: 2021-05-21 16:47:55.037406"
}